{
  "name": "client-feature-main-appointment-editor",
  "$schema": "/node_modules/nx/schemas/project-schema.json",
  "projectType": "library",
  "sourceRoot": "libs/client/feature/main/appointment-editor/src",
  "prefix": "sows",
  "targets": {
    "test": {
      "executor": "@nrwl/jest:jest",
      "outputs": ["{workspaceRoot}/coverage/{projectRoot}"],
      "options": {
        "jestConfig": "libs/client/feature/main/appointment-editor/jest.config.ts",
        "passWithNoTests": true
      },
      "configurations": {
        "ci": {
          "ci": true,
          "codeCoverage": true
        }
      }
    },
    "lint": {
      "executor": "@nrwl/linter:eslint",
      "outputs": ["{options.outputFile}"],
      "options": {
        "lintFilePatterns": [
          "libs/client/feature/main/appointment-editor/**/*.ts",
          "libs/client/feature/main/appointment-editor/**/*.html"
        ]
      }
    }
  },
  "tags": ["type:lib", "scope:client", "lib-type:feature"]
}
